K-Means Clustering in R
…
--

.pull-left60[

#### Example: Clustering Palmer Penguins Bill Sizes

```r
library(tidyverse)
(df <- palmerpenguins::penguins %>% 
  select(bill_length_mm, bill_depth_mm) %>% 
  drop_na())
```

```
## # A tibble: 342 x 2
##    bill_length_mm bill_depth_mm
##             <dbl>         <dbl>
##  1           39.1          18.7
##  2           39.5          17.4
##  3           40.3          18  
##  4           36.7          19.3
##  5           39.3          20.6
##  6           38.9          17.8
##  7           39.2          19.6
##  8           34.1          18.1
##  9           42            20.2
## 10           37.8          17.1
## # ... with 332 more rows
```
…
